%YAML 1.1
%TAG !u! tag:unity3d.com,2011:
--- !u!54 &-2417865348517310669
Rigidbody:
  m_ObjectHideFlags: 0
  m_CorrespondingSourceObject: {fileID: 0}
  m_PrefabInstance: {fileID: 0}
  m_PrefabAsset: {fileID: 0}
  m_GameObject: {fileID: 3432818289722310142}
  serializedVersion: 2
  m_Mass: 1
  m_Drag: 0
  m_AngularDrag: 0.05
  m_UseGravity: 1
  m_IsKinematic: 0
  m_Interpolate: 0
  m_Constraints: 0
  m_CollisionDetection: 0
--- !u!65 &908733525
BoxCollider:
  m_ObjectHideFlags: 0
  m_CorrespondingSourceObject: {fileID: 0}
  m_PrefabInstance: {fileID: 0}
  m_PrefabAsset: {fileID: 0}
  m_GameObject: {fileID: 3432818289722310142}
  m_Material: {fileID: 0}
  m_IsTrigger: 0
  m_Enabled: 1
  serializedVersion: 2
  m_Size: {x: 1, y: 2, z: 1}
  m_Center: {x: 0, y: 1, z: 0}
--- !u!114 &3304148545422668181
MonoBehaviour:
  m_ObjectHideFlags: 0
  m_CorrespondingSourceObject: {fileID: 0}
  m_PrefabInstance: {fileID: 0}
  m_PrefabAsset: {fileID: 0}
  m_GameObject: {fileID: 3432818289722310142}
  m_Enabled: 1
  m_EditorHideFlags: 0
  m_Script: {fileID: 11500000, guid: 1e2982aa6765a4d448581795b2580d2c, type: 3}
  m_Name: 
  m_EditorClassIdentifier: 
  EnemyHP: 10
  RandomNumber: 0
--- !u!1001 &3433828543311753434
PrefabInstance:
  m_ObjectHideFlags: 0
  serializedVersion: 2
  m_Modification:
    m_TransformParent: {fileID: 0}
    m_Modifications:
    - target: {fileID: 1331328711462180, guid: e8e6a8d0d7d9a1245a0d143f23cc283b, type: 3}
      propertyPath: m_Name
      value: Zombie Fuerte 1 Variant
      objectReference: {fileID: 0}
    - target: {fileID: 1331328711462180, guid: e8e6a8d0d7d9a1245a0d143f23cc283b, type: 3}
      propertyPath: m_TagString
      value: Enemy
      objectReference: {fileID: 0}
    - target: {fileID: 4267430597299062, guid: e8e6a8d0d7d9a1245a0d143f23cc283b, type: 3}
      propertyPath: m_LocalPosition.x
      value: 30.414425
      objectReference: {fileID: 0}
    - target: {fileID: 4267430597299062, guid: e8e6a8d0d7d9a1245a0d143f23cc283b, type: 3}
      propertyPath: m_LocalPosition.y
      value: 0
      objectReference: {fileID: 0}
    - target: {fileID: 4267430597299062, guid: e8e6a8d0d7d9a1245a0d143f23cc283b, type: 3}
      propertyPath: m_LocalPosition.z
      value: -1.23
      objectReference: {fileID: 0}
    - target: {fileID: 4267430597299062, guid: e8e6a8d0d7d9a1245a0d143f23cc283b, type: 3}
      propertyPath: m_LocalRotation.x
      value: 0
      objectReference: {fileID: 0}
    - target: {fileID: 4267430597299062, guid: e8e6a8d0d7d9a1245a0d143f23cc283b, type: 3}
      propertyPath: m_LocalRotation.y
      value: 0
      objectReference: {fileID: 0}
    - target: {fileID: 4267430597299062, guid: e8e6a8d0d7d9a1245a0d143f23cc283b, type: 3}
      propertyPath: m_LocalRotation.z
      value: 0
      objectReference: {fileID: 0}
    - target: {fileID: 4267430597299062, guid: e8e6a8d0d7d9a1245a0d143f23cc283b, type: 3}
      propertyPath: m_LocalRotation.w
      value: 1
      objectReference: {fileID: 0}
    - target: {fileID: 4267430597299062, guid: e8e6a8d0d7d9a1245a0d143f23cc283b, type: 3}
      propertyPath: m_RootOrder
      value: 0
      objectReference: {fileID: 0}
    - target: {fileID: 4267430597299062, guid: e8e6a8d0d7d9a1245a0d143f23cc283b, type: 3}
      propertyPath: m_LocalEulerAnglesHint.x
      value: 0
      objectReference: {fileID: 0}
    - target: {fileID: 4267430597299062, guid: e8e6a8d0d7d9a1245a0d143f23cc283b, type: 3}
      propertyPath: m_LocalEulerAnglesHint.y
      value: 0
      objectReference: {fileID: 0}
    - target: {fileID: 4267430597299062, guid: e8e6a8d0d7d9a1245a0d143f23cc283b, type: 3}
      propertyPath: m_LocalEulerAnglesHint.z
      value: 0
      objectReference: {fileID: 0}
    m_RemovedComponents: []
  m_SourcePrefab: {fileID: 100100000, guid: e8e6a8d0d7d9a1245a0d143f23cc283b, type: 3}
--- !u!1 &3432818289722310142 stripped
GameObject:
  m_CorrespondingSourceObject: {fileID: 1331328711462180, guid: e8e6a8d0d7d9a1245a0d143f23cc283b,
    type: 3}
  m_PrefabInstance: {fileID: 3433828543311753434}
  m_PrefabAsset: {fileID: 0}
