%YAML 1.1
%TAG !u! tag:unity3d.com,2011:
--- !u!65 &1855650493
BoxCollider:
  m_ObjectHideFlags: 0
  m_CorrespondingSourceObject: {fileID: 0}
  m_PrefabInstance: {fileID: 0}
  m_PrefabAsset: {fileID: 0}
  m_GameObject: {fileID: 9023761920725417662}
  m_Material: {fileID: 0}
  m_IsTrigger: 0
  m_Enabled: 1
  serializedVersion: 2
  m_Size: {x: 0.031239951, y: 0.06416974, z: 0.018467339}
  m_Center: {x: 0, y: 1.3121831e-16, z: 0.009233669}
--- !u!95 &1855650492
Animator:
  serializedVersion: 3
  m_ObjectHideFlags: 0
  m_CorrespondingSourceObject: {fileID: 0}
  m_PrefabInstance: {fileID: 0}
  m_PrefabAsset: {fileID: 0}
  m_GameObject: {fileID: 9023761920725417662}
  m_Enabled: 1
  m_Avatar: {fileID: 0}
  m_Controller: {fileID: 9100000, guid: a627f77166036734293be8be0fbcc3e8, type: 2}
  m_CullingMode: 0
  m_UpdateMode: 0
  m_ApplyRootMotion: 0
  m_LinearVelocityBlending: 0
  m_WarningMessage: 
  m_HasTransformHierarchy: 1
  m_AllowConstantClipSamplingOptimization: 1
  m_KeepAnimatorControllerStateOnDisable: 0
--- !u!1001 &3903903353639870379
PrefabInstance:
  m_ObjectHideFlags: 0
  serializedVersion: 2
  m_Modification:
    m_TransformParent: {fileID: 0}
    m_Modifications:
    - target: {fileID: 5410974633553944853, guid: 1fa1df7a5c5c9e44cbe353cb895f69ad,
        type: 3}
      propertyPath: m_Name
      value: MoneyC
      objectReference: {fileID: 0}
    - target: {fileID: 5410974633553944853, guid: 1fa1df7a5c5c9e44cbe353cb895f69ad,
        type: 3}
      propertyPath: m_TagString
      value: loot3
      objectReference: {fileID: 0}
    - target: {fileID: 5410974633553944853, guid: 1fa1df7a5c5c9e44cbe353cb895f69ad,
        type: 3}
      propertyPath: m_IsActive
      value: 0
      objectReference: {fileID: 0}
    - target: {fileID: 5993009958440129993, guid: 1fa1df7a5c5c9e44cbe353cb895f69ad,
        type: 3}
      propertyPath: m_Enabled
      value: 1
      objectReference: {fileID: 0}
    - target: {fileID: 5993009958440129993, guid: 1fa1df7a5c5c9e44cbe353cb895f69ad,
        type: 3}
      propertyPath: m_Materials.Array.data[0]
      value: 
      objectReference: {fileID: 2100000, guid: 0a8abe37ef689114c9addb0981a1afff, type: 2}
    - target: {fileID: 9028869642528428806, guid: 1fa1df7a5c5c9e44cbe353cb895f69ad,
        type: 3}
      propertyPath: m_LocalPosition.x
      value: 0
      objectReference: {fileID: 0}
    - target: {fileID: 9028869642528428806, guid: 1fa1df7a5c5c9e44cbe353cb895f69ad,
        type: 3}
      propertyPath: m_LocalPosition.y
      value: 0.128
      objectReference: {fileID: 0}
    - target: {fileID: 9028869642528428806, guid: 1fa1df7a5c5c9e44cbe353cb895f69ad,
        type: 3}
      propertyPath: m_LocalPosition.z
      value: 0
      objectReference: {fileID: 0}
    - target: {fileID: 9028869642528428806, guid: 1fa1df7a5c5c9e44cbe353cb895f69ad,
        type: 3}
      propertyPath: m_LocalRotation.x
      value: -0.7071068
      objectReference: {fileID: 0}
    - target: {fileID: 9028869642528428806, guid: 1fa1df7a5c5c9e44cbe353cb895f69ad,
        type: 3}
      propertyPath: m_LocalRotation.y
      value: -0
      objectReference: {fileID: 0}
    - target: {fileID: 9028869642528428806, guid: 1fa1df7a5c5c9e44cbe353cb895f69ad,
        type: 3}
      propertyPath: m_LocalRotation.z
      value: -0
      objectReference: {fileID: 0}
    - target: {fileID: 9028869642528428806, guid: 1fa1df7a5c5c9e44cbe353cb895f69ad,
        type: 3}
      propertyPath: m_LocalRotation.w
      value: 0.7071068
      objectReference: {fileID: 0}
    - target: {fileID: 9028869642528428806, guid: 1fa1df7a5c5c9e44cbe353cb895f69ad,
        type: 3}
      propertyPath: m_RootOrder
      value: 0
      objectReference: {fileID: 0}
    - target: {fileID: 9028869642528428806, guid: 1fa1df7a5c5c9e44cbe353cb895f69ad,
        type: 3}
      propertyPath: m_LocalEulerAnglesHint.x
      value: 0
      objectReference: {fileID: 0}
    - target: {fileID: 9028869642528428806, guid: 1fa1df7a5c5c9e44cbe353cb895f69ad,
        type: 3}
      propertyPath: m_LocalEulerAnglesHint.y
      value: 0
      objectReference: {fileID: 0}
    - target: {fileID: 9028869642528428806, guid: 1fa1df7a5c5c9e44cbe353cb895f69ad,
        type: 3}
      propertyPath: m_LocalEulerAnglesHint.z
      value: 0
      objectReference: {fileID: 0}
    - target: {fileID: 9028869642528428806, guid: 1fa1df7a5c5c9e44cbe353cb895f69ad,
        type: 3}
      propertyPath: m_LocalScale.x
      value: 0.120000005
      objectReference: {fileID: 0}
    - target: {fileID: 9028869642528428806, guid: 1fa1df7a5c5c9e44cbe353cb895f69ad,
        type: 3}
      propertyPath: m_LocalScale.y
      value: 0.120000035
      objectReference: {fileID: 0}
    - target: {fileID: 9028869642528428806, guid: 1fa1df7a5c5c9e44cbe353cb895f69ad,
        type: 3}
      propertyPath: m_LocalScale.z
      value: 0.120000035
      objectReference: {fileID: 0}
    m_RemovedComponents: []
  m_SourcePrefab: {fileID: 100100000, guid: 1fa1df7a5c5c9e44cbe353cb895f69ad, type: 3}
--- !u!1 &9023761920725417662 stripped
GameObject:
  m_CorrespondingSourceObject: {fileID: 5410974633553944853, guid: 1fa1df7a5c5c9e44cbe353cb895f69ad,
    type: 3}
  m_PrefabInstance: {fileID: 3903903353639870379}
  m_PrefabAsset: {fileID: 0}
